%YAML 1.1
%TAG !u! tag:unity3d.com,2011:
--- !u!114 &11400000
MonoBehaviour:
  m_ObjectHideFlags: 0
  m_PrefabParentObject: {fileID: 0}
  m_PrefabInternal: {fileID: 0}
  m_GameObject: {fileID: 0}
  m_Enabled: 1
  m_EditorHideFlags: 0
  m_Script: {fileID: 11500000, guid: 16f195352bf9a7b478d17ea3f6552d99, type: 3}
  m_Name: MoistureTypeConfiguration
  m_EditorClassIdentifier: 
  isDefaultConfig: 1
  typeName: MoistureType
  moistureTypeOrdering:
  - moistureType: {fileID: 11400000, guid: d602393d83165264798d2a7d22d91cfb, type: 2}
    moistureValue: 0.27
  - moistureType: {fileID: 11400000, guid: 3784d8b0ad30f0c47817dbace2eb100a, type: 2}
    moistureValue: 0.4
  - moistureType: {fileID: 11400000, guid: 7cb621b8a95553c4cb3842ad15d7cc5f, type: 2}
    moistureValue: 0.6
  - moistureType: {fileID: 11400000, guid: 5ca96fdf157bae946af63c86f0ccd98a, type: 2}
    moistureValue: 0.8
  - moistureType: {fileID: 11400000, guid: e3b92977b19ba2d4d88e39b540a44f82, type: 2}
    moistureValue: 0.9
  - moistureType: {fileID: 11400000, guid: f05f9f096bbbbe04fa79e35aa26472fd, type: 2}
    moistureValue: 1
