%YAML 1.1
%TAG !u! tag:unity3d.com,2011:
--- !u!114 &11400000
MonoBehaviour:
  m_ObjectHideFlags: 0
  m_PrefabParentObject: {fileID: 0}
  m_PrefabInternal: {fileID: 0}
  m_GameObject: {fileID: 0}
  m_Enabled: 1
  m_EditorHideFlags: 0
  m_Script: {fileID: 11500000, guid: 2e77c533827176441bcf1d4cc6535cb0, type: 3}
  m_Name: Wet
  m_EditorClassIdentifier: 
  color: {r: 0.33333334, g: 1, b: 1, a: 0}
