%YAML 1.1
%TAG !u! tag:unity3d.com,2011:
--- !u!114 &11400000
MonoBehaviour:
  m_ObjectHideFlags: 0
  m_PrefabParentObject: {fileID: 0}
  m_PrefabInternal: {fileID: 0}
  m_GameObject: {fileID: 0}
  m_Enabled: 1
  m_EditorHideFlags: 0
  m_Script: {fileID: 11500000, guid: 9797d32b2f4620a4faeab82df08ade65, type: 3}
  m_Name: Grass
  m_EditorClassIdentifier: 
  color: {r: 0.22095403, g: 0.5965517, b: 0.17106996, a: 0}
  isWater: 0
