%YAML 1.1
%TAG !u! tag:unity3d.com,2011:
--- !u!114 &11400000
MonoBehaviour:
  m_ObjectHideFlags: 0
  m_CorrespondingSourceObject: {fileID: 0}
  m_PrefabInstance: {fileID: 0}
  m_PrefabAsset: {fileID: 0}
  m_GameObject: {fileID: 0}
  m_Enabled: 1
  m_EditorHideFlags: 0
  m_Script: {fileID: 11500000, guid: d59fe98f47161254aa37740a3d519eb7, type: 3}
  m_Name: TerrainTypeConfig
  m_EditorClassIdentifier: 
  isDefaultConfig: 1
  typeName: TerrainType
  terrainTypeOrdering:
  - terrainType: {fileID: 11400000, guid: 26898d5bcb836a147a5ca716b898d4c2, type: 2}
    terrainHeightThreshold: 0.2
  - terrainType: {fileID: 11400000, guid: f075f7b54403a094a8b0e635897538fc, type: 2}
    terrainHeightThreshold: 0.4
  - terrainType: {fileID: 11400000, guid: c033b431e39d6ce4cb1577d7bf370172, type: 2}
    terrainHeightThreshold: 0.45
  - terrainType: {fileID: 11400000, guid: a3a794c54912a604ebf46d072fc44efc, type: 2}
    terrainHeightThreshold: 0.65
  - terrainType: {fileID: 11400000, guid: 1211bb0d5f215c1438690ee6b89aa714, type: 2}
    terrainHeightThreshold: 0.8
  - terrainType: {fileID: 11400000, guid: cf25bc7e9be461f45bddbb85defa3c23, type: 2}
    terrainHeightThreshold: 0.95
  - terrainType: {fileID: 11400000, guid: faecf58873401dd4d8c465410728361f, type: 2}
    terrainHeightThreshold: 1
