%YAML 1.1
%TAG !u! tag:unity3d.com,2011:
--- !u!114 &11400000
MonoBehaviour:
  m_ObjectHideFlags: 0
  m_PrefabParentObject: {fileID: 0}
  m_PrefabInternal: {fileID: 0}
  m_GameObject: {fileID: 0}
  m_Enabled: 1
  m_EditorHideFlags: 0
  m_Script: {fileID: 11500000, guid: 207250ac92cd1b348b594640d83a8bdc, type: 3}
  m_Name: Warmer
  m_EditorClassIdentifier: 
  color: {r: 0.7058823, g: 0.4712802, b: 0.11937714, a: 0}
